…
df <- load_runs(
  `1 user` = "test_sessions/demo1",
  `4 users` = "test_sessions/demo4",
  `16 users` = "test_sessions/demo16"
)
```

[`load_runs()`](https://rstudio.github.io/shinyloadtest/reference/load_runs.md)
returns a tidy tibble:

``` r

df
#> # A tibble: 11,729 × 13
#>    run    user_id session_id iteration input_line_number event    start
#>    <ord>    <int>      <int>     <int>             <int> <chr>    <dbl>
#>  1 1 user       0          0         0                 1 REQ_HOME 0    
#>  2 1 user       0          0         0                 2 REQ_GET  0.309
#>  3 1 user       0          0         0                 3 REQ_GET  0.316
#>  4 1 user       0          0         0                 4 REQ_GET  0.323
#>  5 1 user       0          0         0                 5 REQ_GET  0.33 
#>  6 1 user       0          0         0                 6 REQ_GET  0.339
#>  7 1 user       0          0         0                 7 REQ_GET  0.351
#>  8 1 user       0          0         0                 8 REQ_GET  0.361
#>  9 1 user       0          0         0                 9 REQ_GET  0.366
#> 10 1 user       0          0         0                10 REQ_GET  0.373
#> # ℹ 11,719 more rows
#> # ℹ 6 more variables: end <dbl>, time <dbl>, concurrency <dbl>,
#> #   maintenance <lgl>, label <ord>, json <list>
```
…
