Analyzing results • shinyloadtest
…
If you have multiple runs, give it multiple directories, optionally
providing informative labels. Here I’m loading three runs that replay
the same script simulating 1, 4, and 16 simultaneous uses:

df <- load_runs(
  `1 user` = "test_sessions/demo1",
  `4 users` = "test_sessions/demo4",
  `16 users` = "test_sessions/demo16"
)

load_runs() returns a tidy tibble:

df
#> # A tibble: 11,729 × 13
#>    run    user_id session_id iteration input_line_number event    start   end
#>    <ord>    <int>      <int>     <int>             <int> <chr>    <dbl> <dbl>
#>  1 1 user       0          0         0                 1 REQ_HOME 0     0.308
#>  2 1 user       0          0         0                 2 REQ_GET  0.309 0.316
#>  3 1 user       0          0         0                 3 REQ_GET  0.316 0.323
#>  4 1 user       0          0         0                 4 REQ_GET  0.323 0.33 
#>  5 1 user       0          0         0                 5 REQ_GET  0.33  0.339
#>  6 1 user       0          0         0                 6 REQ_GET  0.339 0.351
#>  7 1 user       0          0         0                 7 REQ_GET  0.351 0.361
#>  8 1 user       0          0         0                 8 REQ_GET  0.361 0.365
#>  9 1 user       0          0         0                 9 REQ_GET  0.366 0.373
#> 10 1 user       0          0         0                10 REQ_GET  0.373 0.382
#> # ℹ 11,719 more rows
#> # ℹ 5 more variables: time <dbl>, concurrency <dbl>, maintenance <lgl>,
#> #   label <ord>, json <list>
…
